[
  {
    "id": 1,
    "time": ["01:00:00:00", "01:00:24:25"],
    "title": "Apresentação",
    "questions": [[2],[3],[9]]
  },
  {
    "id": 2,
    "time": ["01:00:24:25", "01:01:32:22"],
    "title": "O que é ser artista do riso?",
    "questions": [
      [3],
      [5,6],
      [9,10,12,15],
      [11,19,29],
      [13,12,14]
    ]
  },
  {
    "id": 3,
    "time": ["01:01:33:00", "01:02:16:18"],
    "title": "Como você atua?",
    "questions": [
      [4,7,8],
      [11,9,10,12],
      [5,6],
      [29,30],
      [2,28]
    ]
  },
  {
    "id": 4,
    "time": ["01:02:16:24", "01:03:14:22"],
    "title": "Em qual território você atua?",
    "questions": [
      [5,6],
      [7,8],
      [11,9,10,12],
      [13,26],
      [29,30]
    ]
  },
  {
    "id": 5,
    "time": ["01:03:15:03", "01:04:51:22"],
    "title": "Como o bairro influenciou a ser artista?",
    "questions": [
      [6,31,3],
      [7,8],
      [16,10,12],
      [26,13],
      [20,21]
    ]
  },
  {
    "id": 6,
    "time": ["01:04:52:02", "01:05:47:15"],
    "title": "Como a cidade influenciou em sua formação enquanto artista?",
    "questions": [
      [4,5,3],
      [7,8],
      [26,13],
      [28],
      [31,29]
    ]
  },
  {
    "id": 7,
    "time": ["01:05:47:25", "01:07:00:25"],
    "title": "Como é a estrutura do seu bairro?",
    "questions": [
      [8],
      [13],
      [26],
      [5,6,4],
      [29,30,34]
    ]
  },
  {
    "id": 8,
    "time": ["01:07:03:25", "01:08:10:00"],
    "title": "Como é a presença do poder público na comunidade?",
    "questions": [
      [13,4,26],
      [16,21],
      [15,12,9,11],
      [22],
      [29,30,31]
    ]
  },
  {
    "id": 9,
    "time": ["01:08:10:15", "01:09:22:15"],
    "title": "Como surgiu o bloco Maria Fuá?",
    "questions": [
      [15, 12,11],
      [23,24],
      [14,21,13],
      [32,34,33],
      [10,17,25]
    ]
  },
  {
    "id": 10,
    "time": ["01:09:27:00", "01:10:04:00"],
    "title": "Como é o cortejo do bloco Maria Fuá?",
    "questions": [
      [15,19,12],
      [20,21],
      [14,15],
      [25,17,27],
      [29,30]
    ]
  },
  {
    "id": 11,
    "time": ["01:10:16:27", "01:11:15:00"],
    "title": "Por que fundar um bloco de carnaval?",
    "questions": [
      [15,19,12],
      [7,4,8],
      [5,6],
      [30,29,34],
      [28]
    ]
  },
  {
    "id": 12,
    "time": ["01:11:15:00", "01:11:33:27"],
    "title": "Quando o bloco foi fundado?",
    "questions": [
      [9,15],
      [16,13],
      [17,25,27],
      [20,22,21],
      [23,24]
    ]
  },
  {
    "id": 13,
    "time": ["01:11:33:27", "01:12:40:23"],
    "title": "Vocês se relacionam com outras manifestações da cidade?",
    "questions": [
      [16,4,7],
      [14],
      [28],
      [18,17],
      [21,22,20]
    ]
  },
  {
    "id": 14,
    "time": ["01:12:41:03", "01:13:22:25"],
    "title": "Vocês mantiveram relação com as Caixeirosas?",
    "questions": [
      [23,24],
      [13],
      [9,11,10],
      [26,4,7],
      [26,18]
    ]
  },
  {
    "id": 15,
    "time": ["01:13:24:05", "01:14:25:08"],
    "title": "Como se organiza o bloco?",
    "questions": [
      [20,21],
      [4,7],
      [18,23,17],
      [16],
      [26,4]
    ]
  },
  {
    "id": 16,
    "time": ["01:14:25:10", "01:15:35:00"],
    "title": "Como o bloco se articula com a comunidade?",
    "questions": [
      [20,21],
      [7,8,26],
      [11,29,9],
      [4,5,6],
      [30,3]
    ]
  },
  {
    "id": 17,
    "time": ["01:15:37:15", "01:16:30:14"],
    "title": "Como se organiza a ala musical do bloco?",
    "questions": [
      [18,10],
      [25],
      [27,26],
      [30,29,28],
      [32,34,33]
    ]
  },
  {
    "id": 18,
    "time": ["01:16:31:00", "01:18:18:14"],
    "title": "Quais instrumentos são tocados no cortejo?",
    "questions": [
      [22,17,10],
      [23,24],
      [28,27,26],
      [25],
      [19,29,30]
    ]
  },
  {
    "id": 19,
    "time": ["01:18:21:24", "01:18:51:10"],
    "title": "Em que epoca do ano sai o bloco?",
    "questions": [
      [29,30],
      [14,13],
      [26,10,15],
      [9,11],
      [31,4]
    ]
  },
  {
    "id": 20,
    "time": ["01:18:51:15", "01:21:05:00"],
    "title": "O bloco é liderado por mulheres?",
    "questions": [
      [15,9,10],
      [16,7],
      [28,13],
      [21,30],
      [31]
    ]
  },
  {
    "id": 21,
    "time": ["01:21:05:06", "01:22:30:20"],
    "title": "Como é feita a formação de novos integrantes?",
    "questions": [
      [22,20],
      [30,15,26],
      [16,13],
      [17,25,27],
      [19,29]
    ]
  },
  {
    "id": 22,
    "time": ["01:22:30:22", "01:24:08:08"],
    "title": "Crianças podem participar do bloco?",
    "questions": [
      [18,17],
      [21,15],
      [16,5,6],
      [30,29],
      [32,33,34]
    ]
  },
  {
    "id": 23,
    "time": ["01:24:08:13", "01:27:03:20"],
    "title": "Quais são as bonecas do bloco?",
    "questions": [
      [24],
      [14,13],
      [25,18],
      [9,11,12],
      [26,27,29]
    ]
  },
  {
    "id": 24,
    "time": ["01:27:04:03", "01:27:11:00"],
    "title": "Qual é a altura das bonecas?",
    "questions": [
      [23],
      [14,13],
      [25,18],
      [9,11,12],
      [26,27,29]
    ]
  },
  {
    "id": 25,
    "time": ["01:27:11:06", "01:28:52:00"],
    "title": "Como são as danças no bloco?",
    "questions": [
      [18,17,15],
      [19,29,30],
      [27],
      [28],
      [31]
    ]
  },
  {
    "id": 26,
    "time": ["01:28:52:22", "01:30:32:15"],
    "title": "Qual o percurso do cortejo?",
    "questions": [
      [7,8],
      [5,6],
      [16,10,11],
      [19,29],
      [4,3]
    ]
  },
  {
    "id": 27,
    "time": ["01:30:32:17", "01:31:38:00"],
    "title": "Tem comidas no cortejo?",
    "questions": [
      [26,16],
      [15,20,10],
      [18,17],
      [18,25],
      [30,22]
    ]
  },
  {
    "id": 28,
    "time": ["01:31:38:19", "01:32:15:08"],
    "title": "O bloco tem ligação religiosa?",
    "questions": [
      [15,16],
      [19,30],
      [31],
      [32,34],
      [4,3]
    ]
  },
  {
    "id": 29,
    "time": ["01:32:15:18", "01:34:22:12"],
    "title": "Por que festejar o carnaval?",
    "questions": [
      [10,9],
      [30],
      [18,17],
      [21,22],
      [27,25]
    ]
  },
  {
    "id": 30,
    "time": ["01:34:22:20", "01:36:22:20"],
    "title": "O que podemos aprender ao participar do bloco?",
    "questions": [
      [16,15,12],
      [29,11],
      [22,17,18,25],
      [5,6],
      [33]
    ]
  },
  {
    "id": 31,
    "time": ["01:36:23:01", "01:38:18:00"],
    "title": "O que é cultura popular?",
    "questions": [
      [30],
      [16,12,9],
      [11,29],
      [4,3],
      [15,10]
    ]
  },
  {
    "id": 32,
    "time": ["01:38:18:06", "01:41:29:00"],
    "title": "Como o bloco se manteve atuando durante a pandemia?",
    "questions": [
      [33,34],
      [13],
      [29,30],
      [12,10,9],
      [31]
    ]
  },
  {
    "id": 33,
    "time": ["01:41:36:26", "01:44:08:00"],
    "title": "Por que não fazer um carnaval virtual?",
    "questions": [
      [7,16,8],
      [17,18],
      [34],
      [29,30],
      [22,21]
    ]
  },
  {
    "id": 34,
    "time": ["01:44:08:02", "01:46:45:00"],
    "title": "Quais as perspectivas pro futuro?", 
    "questions": [
      [29,30],
      [32],
      [33,16],
      [21,22],
      [13,4]
    ]
  },
  {
    "id": 35,
    "time": ["01:46:45:13"],
    "title": "Despedida",
    "questions": [

    ]
  }
]