[
  {
    "id": 1,
    "time": ["01:00:00:00", "01:00:28:00"],
    "title": "Apresentação",
    "questions": [
      [2],[19],[4]
    ]
  },
  {
    "id": 2,
    "time": ["01:00:28:13", "01:01:17:20"],
    "title": "Quando a escola foi fundada?",
    "questions": [
      [5, 32],
      [8,24,23],
      [3,30,18],
      [34,14,10],
      [4,6,15]
    ]
  },
  {
    "id": 3,
    "time": ["01:01:18:03", "01:02:22:00"],
    "title": "Qual a história da fundação da escola?",
    "questions": [
      [2,5,12],
      [30,18],
      [15,4,16],
      [20,29],
      [26,19]
    ]
  },
  {
    "id": 4,
    "time": ["01:02:22:14", "01:02:50:20"],
    "title": "Onde está localizada a escola?",
    "questions": [
      [15,16,6],
      [2,3],
      [20,9,11],
      [19,26],
      [11,12]
    ]
  },
  {
    "id": 5,
    "time": ["01:02:51:04", "01:03:53:00"],
    "title": "Como você entrou para a escola?",
    "questions": [
      [2,3,18],
      [32,14,10],
      [7,23,24],
      [4,15],
      [8,31]
    ]
  },
  {
    "id": 6,
    "time": ["01:04:01:14", "01:04:23:00"],
    "title": "Onde acontecem os desfiles da escola?",
    "questions": [
      [4,15],
      [9,20,29],
      [13,11,12],
      [3,2],
      [26,19]
    ]
  },
  {
    "id": 7,
    "time": ["01:04:23:06", "01:04:43:10"],
    "title": "Como é o carnaval em São Bernardo?",
    "questions": [
      [24,23,21],
      [25,28,22],
      [8,31],
      [27,14,10],
      [18,30]
    ]
  },
  {
    "id": 8,
    "time": ["01:04:44:07", "01:05:29:25"],
    "title": "Sem desfile, quais atividades a escola realiza?",
    "questions": [
      [27,31],
      [14,10,32],
      [28],
      [26,15,29],
      [22,25,21]
    ]
  },
  {
    "id": 9,
    "time": ["01:05:33:26", "01:06:10:15"],
    "title": "Quantas pessoas participam dos desfiles?",
    "questions": [
      [20,29],
      [10,14],
      [11,13,12],
      [6,16,4],
      [23,21,24]
    ]
  },
  {
    "id": 10,
    "time": ["01:06:11:00", "01:06:54:15"],
    "title": "Como a escola arrecada a verba necessária para realizar o carnaval?",
    "questions": [
      [31,14],
      [21,22,25],
      [27,8],
      [26,34],
      [13,11,12]
    ]
  },
  {
    "id": 11,
    "time": ["01:06:54:29", "01:08:44:20"],
    "title": "Como são escolhidos os enredos dos desfiles?",
    "questions": [
      [13,9],
      [12,18,30],
      [10,14],
      [20,29],
      [6,16,26]
    ]
  },
  {
    "id": 12,
    "time": ["01:08:45:07", "01:09:58:10"],
    "title": "Como se dá a formação dos integrantes da escola?",
    "questions": [
      [13,11],
      [4,15,6],
      [8,27],
      [20,9],
      [32,5]
    ]
  },
  {
    "id": 13,
    "time": ["01:09:58:20", "01:11:03:00"],
    "title": "Como são feitas as esculturas dos carros alegóricos?",
    "questions": [
      [11],
      [12],
      [20,29],
      [26,16,6],
      [34,17]
    ]
  },
  {
    "id": 14,
    "time": ["01:11:03:10", "01:13:22:15"],
    "title": "Quais as dificuldades para se manter a cultura das escolas de samba?",
    "questions": [
      [7,22],
      [14,10],
      [26,19],
      [32,20],
      [15,4]
    ]
  },
  {
    "id": 15,
    "time": ["01:13:22:22", "01:14:21:00"],
    "title": "Como é a relação da escola com o bairro?",
    "questions": [
      [4,16,6],
      [34,14],
      [7,4],
      [27,28],
      [2,3]
    ]
  },
  {
    "id": 16,
    "time": ["01:14:21:12", "01:15:08:05"],
    "title": "Onde acontecem os ensaios da escola?",
    "questions": [
      [15,4],
      [26,19],
      [21,23,24],
      [20,9],
      [12,3]
    ]
  },
  {
    "id": 17,
    "time": ["01:15:08:17", "01:16:35:15"],
    "title": "As escolas de samba são mal vistas na sociedade?",
    "questions": [
      [19,26],
      [8,31],
      [28,27],
      [14,34],
      [7,21,23]
    ]
  },
  {
    "id": 18,
    "time": ["01:16:35:28", "01:17:04:20"],
    "title": "A União da Vila tem alguma escola madrinha?",
    "questions": [
      [30,6],
      [3,2],
      [34,17],
      [11,12,13],
      [20,9]
    ]
  },
  {
    "id": 19,
    "time": ["01:17:05:02", "01:17:51:00"],
    "title": "O que é uma Escola de Samba?",
    "questions": [
      [20,3,2],
      [12,34],
      [15,4],
      [29],
      [26,16]
    ]
  },
  {
    "id": 20,
    "time": ["01:17:51:02", "01:18:26:00"],
    "title": "Quem pode participar da Escola de Samba?",
    "questions": [
      [19,3,2],
      [12,34],
      [15,4],
      [29,11],
      [26,16]
    ]
  },
  {
    "id": 21,
    "time": ["01:18:26:06", "01:20:25:05"],
    "title": "Qual é a relação com o poder público com a Cultura?",
    "questions": [
      [14,10],
      [23,25,7],
      [22,25],
      [8,27,31],
      [32]
    ]
  },
  {
    "id": 22,
    "time": ["01:20:25:18", "01:20:54:20"],
    "title": "Como melhorar a cultura da cidade?",
    "questions": [
      [23,21],
      [24,17],
      [26,29],
      [25,8],
      [27,28]
    ]
  },
  {
    "id": 23,
    "time": ["01:20:55:00", "01:23:39:10"],
    "title": "Como a gestão municipal tem tratado o carnaval?",
    "questions": [
      [28,27],
      [8,6],
      [24,21],
      [17,34],
      [8,31]
    ]
  },
  {
    "id": 24,
    "time": ["01:23:39:22", "01:25:26:15"],
    "title": "A gestão pública tem direito de terminar com o carnaval?",
    "questions": [
      [23,21],
      [17,34],
      [26,29],
      [25,8],
      [27,28]
    ]
  },
  {
    "id": 25,
    "time": ["01:25:26:29", "01:26:12:15"],
    "title": "Tem alternativas para realizar o carnaval na cidade?",
    "questions": [
      [14,10],
      [22,23],
      [24,17],
      [27,8],
      [26,19]
    ]
  },
  {
    "id": 26,
    "time": ["01:26:12:28", "01:28:00:05"],
    "title": "Qual é a importancia do carnaval para a cidade?",
    "questions": [
      [19,3,2],
      [34,12,29],
      [8,31],
      [14,10],
      [21,23]
    ]
  },
  {
    "id": 27,
    "time": ["01:28:00:17", "01:29:02:20"],
    "title": "Qual foi o impacto da pandemia para as escolas de samba?",
    "questions": [
      [8,31],
      [14,10],
      [13,11],
      [4,15],
      [32,5]
    ]
  },
  {
    "id": 28,
    "time": ["01:29:03:07", "01:29:40:15"],
    "title": "Você acha que, frente a pandemia, já deveriamos retomar carnaval?",
    "questions": [
      [27],
      [11,13],
      [12,34],
      [9,20],
      [6,3,2]
    ]
  },
  {
    "id": 29,
    "time": ["01:29:40:27", "01:32:20:15"],
    "title": "Como é a participação das mulheres na escola?",
    "questions": [
      [32,5],
      [15,4],
      [8,31],
      [14,10],
      [12,34]
    ]
  },
  {
    "id": 30,
    "time": ["01:32:20:25", "01:32:40:10"],
    "title": "Como é o brasão da escola?",
    "questions": [
      [18],
      [3,2],
      [6,16],
      [19,26],
      [11,13]
    ]
  },
  {
    "id": 31,
    "time": ["01:32:40:17", "01:34:41:25"],
    "title": "Quais outras ações uma escola de samba realiza fora do carnaval?",
    "questions": [
      [8],
      [10,14],
      [19,26],
      [7,21,23],
      [28,27]
    ]
  },
  {
    "id": 32,
    "time": ["01:34:42:07", "01:35:10:00"],
    "title": "Como é ser presidente de uma escola de samba?",
    "questions": [
      [8,27,28],
      [14],
      [10,31],
      [26,19],
      [32,3]
    ]
  },
  {
    "id": 33,
    "time": ["01:35:12:00", "01:35:43:10"],
    "title": "Que tipos de eventos a escola realiza para arrecar verba?",
    "questions": [
      [15,4,6,16],
      [28,27],
      [34,12],
      [14,10],
      [8]
    ]
  },
  {
    "id": 34,
    "time": ["01:35:43:15", "01:36:15:20"],
    "title": "Qual a mportância de transmitir a cultura popular?",
    "questions": [
      [12,20,9],
      [34,5],
      [2,3],
      [19,26],
      [27,28]
    ]
  },
  {
    "id": 35,
    "time": ["01:36:16:07"],
    "title": "Despedida",
    "questions": []
  }
]